…
props <-
  grants_other |>
  group_by(sponsor_code) |>
  summarise(
    prop = mean(class == "successful"),
    log_odds = log(prop / (1 - prop)),
    n = length(class)
  ) |>
  mutate(label = paste0(gsub("_", " ", sponsor_code), " (n=", n, ")"))

props |>
  select(-label)
```

    ## # A tibble: 291 × 4
    ##    sponsor_code  prop log_odds     n
    ##    <fct>        <dbl>    <dbl> <int>
    ##  1 100D         0.6      0.405    10
    ##  2 101A         0.125   -1.95     16
    ##  3 103C         0.111   -2.08      9
    ##  4 105A         0.167   -1.61      6
    ##  5 107C         1      Inf         2
    ##  6 10B          1      Inf         1
    ##  7 111C         0.167   -1.61      6
    ##  8 112D         0.667    0.693    12
    ##  9 113A         0.5      0        10
    ## 10 118B         0.5      0         2
    ## # ℹ 281 more rows
…
The `tidy` method can be used to extract the encodings and are merged
with the raw estimates:

``` r
glm_estimates <-
  tidy(grants_glm, number = 1) |>
  dplyr::select(-terms, -id)
glm_estimates
```

    ## # A tibble: 292 × 2
    ##    level  value
    ##    <chr>  <dbl>
    ##  1 100D   0.405
    ##  2 101A  -1.95 
    ##  3 103C  -2.08 
    ##  4 105A  -1.61 
    ##  5 107C  16.6  
    ##  6 10B   16.6  
    ##  7 111C  -1.61 
    ##  8 112D   0.693
    ##  9 113A   0    
    ## 10 118B   0    
    ## # ℹ 282 more rows
…
