Entity Embeddings of Categorical Variables using TensorFlow • embed
…
The embeddings are obtained using the tidy method:

hood_coef <-
  tidy(tf_embed, number = 4) |>
  dplyr::select(-terms, -id) |>
  dplyr::rename(Neighborhood = level) |>
  # Make names smaller
  rename_at(
    vars(contains("emb")),
    funs(gsub("Neighborhood_", "", ., fixed = TRUE))
  )
hood_coef

## # A tibble: 30 × 6
##     embed_1  embed_2   embed_3   embed_4  embed_5 Neighborhood      
##       <dbl>    <dbl>     <dbl>     <dbl>    <dbl> <chr>             
##  1  0.00374  0.0256  -0.0488   -0.00398   0.0223  ..new             
##  2 -0.0347  -0.0211   0.0465   -0.104     0.0550  North_Ames        
##  3 -0.0346   0.0178  -0.00693  -0.0147   -0.0518  College_Creek     
##  4  0.0218   0.00711 -0.0115    0.000436  0.0939  Old_Town          
##  5 -0.0250   0.0237   0.00155  -0.0308    0.0902  Edwards           
##  6 -0.0575  -0.0749  -0.0175    0.00177  -0.0791  Somerset          
##  7 -0.0877  -0.0472   0.00197   0.000189 -0.133   Northridge_Heights
##  8 -0.0310   0.0229   0.0332    0.0329   -0.0104  Gilbert           
##  9  0.0250  -0.0470   0.000326  0.0195    0.0151  Sawyer            
## 10  0.00659 -0.00130 -0.000546 -0.0238    0.00247 Northwest_Ames    
## # ℹ 20 more rows

hood_coef <-
  hood_coef |>
  inner_join(means, by = "Neighborhood")
hood_coef

## # A tibble: 28 × 10
##     embed_1  embed_2   embed_3   embed_4  embed_5 Neighborhood     mean
##       <dbl>    <dbl>     <dbl>     <dbl>    <dbl> <chr>           <dbl>
##  1 -0.0347  -0.0211   0.0465   -0.104     0.0550  North_Ames       5.15
##  2 -0.0346   0.0178  -0.00693  -0.0147   -0.0518  College_Creek    5.29
##  3  0.0218   0.00711 -0.0115    0.000436  0.0939  Old_Town         5.07
##  4 -0.0250   0.0237   0.00155  -0.0308    0.0902  Edwards          5.09
##  5 -0.0575  -0.0749  -0.0175    0.00177  -0.0791  Somerset         5.35
##  6 -0.0877  -0.0472   0.00197   0.000189 -0.133   Northridge_Hei…  5.49
##  7 -0.0310   0.0229   0.0332    0.0329   -0.0104  Gilbert          5.27
##  8  0.0250  -0.0470   0.000326  0.0195    0.0151  Sawyer           5.13
##  9  0.00659 -0.00130 -0.000546 -0.0238    0.00247 Northwest_Ames   5.27
## 10 -0.0377  -0.00381  0.0174   -0.0395    0.00558 Sawyer_West      5.25
## # ℹ 18 more rows
## # ℹ 3 more variables: n <int>, lon <dbl>, lat <dbl>
…
