…
``` r
hood_coef <-
  tidy(tf_embed, number = 4) |>
  dplyr::select(-terms, -id) |>
  dplyr::rename(Neighborhood = level) |>
  # Make names smaller
  rename_at(
    vars(contains("emb")),
    funs(gsub("Neighborhood_", "", ., fixed = TRUE))
  )
hood_coef
```

    ## # A tibble: 30 × 6
    ##     embed_1 embed_2  embed_3  embed_4  embed_5 Neighborhood      
    ##       <dbl>   <dbl>    <dbl>    <dbl>    <dbl> <chr>             
    ##  1 -0.0387   0.0221  0.00882 -0.0269   0.00423 ..new             
    ##  2 -0.0558  -0.0122 -0.0332  -0.0337   0.0272  North_Ames        
    ##  3 -0.0421  -0.0315  0.0254  -0.0197  -0.0697  College_Creek     
    ##  4  0.00345 -0.0339  0.0105   0.0225   0.108   Old_Town          
    ##  5 -0.00364  0.0426  0.0386  -0.0160   0.0413  Edwards           
    ##  6 -0.00298 -0.0789 -0.0310  -0.0584  -0.0966  Somerset          
    ##  7 -0.00970 -0.0906  0.0451  -0.107   -0.131   Northridge_Heights
    ##  8  0.0349  -0.0474  0.00604  0.00234 -0.0223  Gilbert           
    ##  9 -0.00391 -0.0242  0.0390  -0.0785   0.0499  Sawyer            
    ## 10  0.0198  -0.0342  0.0124   0.00173 -0.00814 Northwest_Ames    
    ## # ℹ 20 more rows

``` r
hood_coef <-
  hood_coef |>
  inner_join(means, by = "Neighborhood")
hood_coef
```

    ## # A tibble: 28 × 10
    ##     embed_1 embed_2  embed_3  embed_4  embed_5 Neighborhood  mean     n
    ##       <dbl>   <dbl>    <dbl>    <dbl>    <dbl> <chr>        <dbl> <int>
    ##  1 -0.0558  -0.0122 -0.0332  -0.0337   0.0272  North_Ames    5.15   443
    ##  2 -0.0421  -0.0315  0.0254  -0.0197  -0.0697  College_Cre…  5.29   267
    ##  3  0.00345 -0.0339  0.0105   0.0225   0.108   Old_Town      5.07   239
    ##  4 -0.00364  0.0426  0.0386  -0.0160   0.0413  Edwards       5.09   194
    ##  5 -0.00298 -0.0789 -0.0310  -0.0584  -0.0966  Somerset      5.35   182
    ##  6 -0.00970 -0.0906  0.0451  -0.107   -0.131   Northridge_…  5.49   166
    ##  7  0.0349  -0.0474  0.00604  0.00234 -0.0223  Gilbert       5.27   165
    ##  8 -0.00391 -0.0242  0.0390  -0.0785   0.0499  Sawyer        5.13   151
    ##  9  0.0198  -0.0342  0.0124   0.00173 -0.00814 Northwest_A…  5.27   131
    ## 10 -0.0489  -0.0473 -0.0359  -0.0561   0.0144  Sawyer_West   5.25   125
    ## # ℹ 18 more rows
    ## # ℹ 2 more variables: lon <dbl>, lat <dbl>
…
