…
set.seed(1234)
split <- initial_split(credit_data[1:1000, ], strata = "Status")

credit_data_tr <- training(split)
credit_data_te <- testing(split)

xgb_rec <-
  recipe(Status ~ Income + Assets, data = credit_data_tr) |>
  step_impute_median(Income, Assets) |>
  step_discretize_xgb(Income, Assets, outcome = "Status")

xgb_rec <- prep(xgb_rec, training = credit_data_tr)

bake(xgb_rec, credit_data_te, Assets)
#> # A tibble: 251 × 1
#>    Assets     
#>    <fct>      
#>  1 [3000,4000)
#>  2 [3000,4000)
#>  3 [9500, Inf]
#>  4 [3000,4000)
#>  5 [-Inf,2500)
#>  6 [-Inf,2500)
#>  7 [-Inf,2500)
#>  8 [4000,4500)
#>  9 [-Inf,2500)
#> 10 [3000,4000)
#> # ℹ 241 more rows
```
