…
``` r
hood_coef <-
  tidy(tf_embed, number = 4) |>
  dplyr::select(-terms, -id) |>
  dplyr::rename(Neighborhood = level) |>
  # Make names smaller
  rename_at(
    vars(contains("emb")),
    funs(gsub("Neighborhood_", "", ., fixed = TRUE))
  )
hood_coef
```

    ## # A tibble: 30 × 6
    ##    embed_1  embed_2  embed_3  embed_4 embed_5 Neighborhood      
    ##      <dbl>    <dbl>    <dbl>    <dbl>   <dbl> <chr>             
    ##  1 -0.0102 -0.0239  -0.0220  -0.0306  -0.0211 ..new             
    ##  2 -0.0196 -0.0232  -0.00193 -0.0181   0.0329 North_Ames        
    ##  3 -0.0445 -0.0378  -0.0279  -0.0234  -0.0496 College_Creek     
    ##  4 -0.0358  0.0287   0.0114   0.0380   0.0750 Old_Town          
    ##  5 -0.0503  0.0560   0.0221   0.0268   0.0488 Edwards           
    ##  6 -0.0232 -0.121   -0.0375  -0.0160  -0.0756 Somerset          
    ##  7 -0.0474 -0.0457  -0.0362  -0.0664  -0.161  Northridge_Heights
    ##  8  0.0192 -0.00966  0.0150  -0.0422  -0.0216 Gilbert           
    ##  9 -0.0628 -0.0252  -0.00954  0.00523  0.0362 Sawyer            
    ## 10 -0.0322 -0.0390   0.0107  -0.0122   0.0166 Northwest_Ames    
    ## # ℹ 20 more rows

``` r
hood_coef <-
  hood_coef |>
  inner_join(means, by = "Neighborhood")
hood_coef
```

    ## # A tibble: 28 × 10
    ##    embed_1  embed_2  embed_3  embed_4  embed_5 Neighborhood  mean     n
    ##      <dbl>    <dbl>    <dbl>    <dbl>    <dbl> <chr>        <dbl> <int>
    ##  1 -0.0196 -0.0232  -0.00193 -0.0181   0.0329  North_Ames    5.15   443
    ##  2 -0.0445 -0.0378  -0.0279  -0.0234  -0.0496  College_Cre…  5.29   267
    ##  3 -0.0358  0.0287   0.0114   0.0380   0.0750  Old_Town      5.07   239
    ##  4 -0.0503  0.0560   0.0221   0.0268   0.0488  Edwards       5.09   194
    ##  5 -0.0232 -0.121   -0.0375  -0.0160  -0.0756  Somerset      5.35   182
    ##  6 -0.0474 -0.0457  -0.0362  -0.0664  -0.161   Northridge_…  5.49   166
    ##  7  0.0192 -0.00966  0.0150  -0.0422  -0.0216  Gilbert       5.27   165
    ##  8 -0.0628 -0.0252  -0.00954  0.00523  0.0362  Sawyer        5.13   151
    ##  9 -0.0322 -0.0390   0.0107  -0.0122   0.0166  Northwest_A…  5.27   131
    ## 10 -0.0614 -0.0418  -0.0289   0.0296  -0.00234 Sawyer_West   5.25   125
    ## # ℹ 18 more rows
    ## # ℹ 2 more variables: lon <dbl>, lat <dbl>
…
