Entity Embeddings of Categorical Variables using TensorFlow • embed
…
The embeddings are obtained using the tidy method:

hood_coef <-
  tidy(tf_embed, number = 4) %>%
  dplyr::select(-terms, -id) %>%
  dplyr::rename(Neighborhood = level) %>%
  # Make names smaller
  rename_at(
    vars(contains("emb")),
    funs(gsub("Neighborhood_", "", ., fixed = TRUE))
  )
hood_coef

## # A tibble: 30 × 6
##     embed_1  embed_2  embed_3  embed_4  embed_5 Neighborhood      
##       <dbl>    <dbl>    <dbl>    <dbl>    <dbl> <chr>             
##  1 -0.0455  -0.0389  -0.0212   0.00785  0.0172  ..new             
##  2 -0.0553  -0.00705  0.0422  -0.0445   0.0406  North_Ames        
##  3 -0.0440  -0.0465  -0.00791 -0.0261  -0.0387  College_Creek     
##  4  0.0498   0.0146  -0.00975 -0.0201   0.0785  Old_Town          
##  5  0.0362  -0.0135   0.0471   0.0297   0.0471  Edwards           
##  6 -0.00750 -0.0576   0.0103  -0.0164  -0.112   Somerset          
##  7 -0.0541  -0.146   -0.00780 -0.0661  -0.116   Northridge_Heights
##  8 -0.0399  -0.00227  0.0274   0.0308  -0.0191  Gilbert           
##  9  0.00240  0.0114   0.0509  -0.0731   0.0170  Sawyer            
## 10  0.0288  -0.0579  -0.0349   0.0161   0.00614 Northwest_Ames    
## # ℹ 20 more rows

hood_coef <-
  hood_coef %>%
  inner_join(means, by = "Neighborhood")
hood_coef

## # A tibble: 28 × 10
##     embed_1  embed_2  embed_3 embed_4  embed_5 Neighborhood     mean     n
##       <dbl>    <dbl>    <dbl>   <dbl>    <dbl> <chr>           <dbl> <int>
##  1 -0.0553  -0.00705  0.0422  -0.0445  0.0406  North_Ames       5.15   443
##  2 -0.0440  -0.0465  -0.00791 -0.0261 -0.0387  College_Creek    5.29   267
##  3  0.0498   0.0146  -0.00975 -0.0201  0.0785  Old_Town         5.07   239
##  4  0.0362  -0.0135   0.0471   0.0297  0.0471  Edwards          5.09   194
##  5 -0.00750 -0.0576   0.0103  -0.0164 -0.112   Somerset         5.35   182
##  6 -0.0541  -0.146   -0.00780 -0.0661 -0.116   Northridge_Hei…  5.49   166
##  7 -0.0399  -0.00227  0.0274   0.0308 -0.0191  Gilbert          5.27   165
##  8  0.00240  0.0114   0.0509  -0.0731  0.0170  Sawyer           5.13   151
##  9  0.0288  -0.0579  -0.0349   0.0161  0.00614 Northwest_Ames   5.27   131
## 10 -0.00468 -0.0322   0.0528  -0.0397 -0.00754 Sawyer_West      5.25   125
## # ℹ 18 more rows
## # ℹ 2 more variables: lon <dbl>, lat <dbl>
…
