Using Generalized Linear Models • embed
…
data(okc)

props <- 
  okc %>%
  group_by(location) %>%
  summarise(
    prop = mean(Class == "stem"),
    log_odds  = log(prop/(1-prop)),
    n = length(Class)
  ) %>% 
  mutate(label = paste0(gsub("_", " ", location), " (n=", n, ")"))
props %>%
  select(-label)

## # A tibble: 135 x 4
##    location            prop log_odds     n
##    <chr>              <dbl>    <dbl> <int>
##  1 alameda           0.143     -1.79   910
##  2 albany            0.163     -1.64   233
##  3 arcadia           0       -Inf        1
##  4 ashland           0       -Inf        1
##  5 atherton          0.222     -1.25    45
##  6 bayshore          0       -Inf        3
##  7 belmont           0.222     -1.25   243
##  8 belvedere tiburon 0.0702    -2.58    57
##  9 benicia           0.0837    -2.39   203
## 10 berkeley          0.140     -1.82  4212
## # … with 125 more rows
…
okc_glm <- 
  recipe(Class ~ ., data = okc) %>%
  # specify the variable being encoded and the outcome
  step_lencode_glm(location, outcome = vars(Class)) %>%
  # estimate the effects
  prep(training = okc)

The tidy method can be used to extract the encodings and are merged with the raw estimates:

glm_estimates <- 
  tidy(okc_glm, number = 1) %>% 
  dplyr::select(-terms, -id) 
glm_estimates

## # A tibble: 136 x 2
##    level              value
##    <chr>              <dbl>
##  1 alameda            -1.79
##  2 albany             -1.64
##  3 arcadia           -14.6 
##  4 ashland           -14.6 
##  5 atherton           -1.25
##  6 bayshore          -14.6 
##  7 belmont            -1.25
##  8 belvedere tiburon  -2.58
##  9 benicia            -2.39
## 10 berkeley           -1.82
## # … with 126 more rows
…
## Warning: Tail Effective Samples Size (ESS) is too low, indicating posterior variances and tail quantiles may be unreliable.
## Running the chains for more iterations may help. See
## http://mc-stan.org/misc/warnings.html#tail-ess

This took more time than the simple non-pooled model. The embeddings are extracted in the same way:

all_estimates <- 
  tidy(okc_glmer, number = 1) %>% 
  dplyr::select(-terms, -id) %>%
  set_names(c("location", "glmer")) %>%
    inner_join(glm_estimates, by = "location")
all_estimates %>% dplyr::select(location, log_odds, glm, glmer)

## # A tibble: 135 x 4
##    location          log_odds    glm glmer
##    <chr>                <dbl>  <dbl> <dbl>
##  1 alameda              -1.79  -1.79 -1.80
##  2 albany               -1.64  -1.64 -1.69
##  3 arcadia            -Inf    -14.6  -2.00
##  4 ashland            -Inf    -14.6  -1.96
##  5 atherton             -1.25  -1.25 -1.51
##  6 bayshore           -Inf    -14.6  -2.04
##  7 belmont              -1.25  -1.25 -1.32
##  8 belvedere tiburon    -2.58  -2.58 -2.30
##  9 benicia              -2.39  -2.39 -2.31
## 10 berkeley             -1.82  -1.82 -1.82
## # … with 125 more rows
…
all_estimates <- 
  tidy(okc_mixed, number = 1) %>% 
  dplyr::select(-terms, -id) %>%
  set_names(c("location", "mixed")) %>%
    inner_join(all_estimates, by = "location")
all_estimates %>% 
  dplyr::select(location, log_odds, glm, glmer, mixed)

## # A tibble: 135 x 5
##    location          log_odds    glm glmer mixed
##    <chr>                <dbl>  <dbl> <dbl> <dbl>
##  1 alameda              -1.79  -1.79 -1.80 -1.80
##  2 albany               -1.64  -1.64 -1.69 -1.67
##  3 arcadia            -Inf    -14.6  -2.00 -1.97
##  4 ashland            -Inf    -14.6  -1.96 -1.97
##  5 atherton             -1.25  -1.25 -1.51 -1.50
##  6 bayshore           -Inf    -14.6  -2.04 -2.03
##  7 belmont              -1.25  -1.25 -1.32 -1.31
##  8 belvedere tiburon    -2.58  -2.58 -2.30 -2.27
##  9 benicia              -2.39  -2.39 -2.31 -2.30
## 10 berkeley             -1.82  -1.82 -1.82 -1.82
## # … with 125 more rows
…
