Entity Embeddings of Categorical Variables using Tensorflow • embed
…
The embeddings are obtained using the tidy method:

hood_coef <-
  tidy(tf_embed, number = 4) %>%
  dplyr::select(-terms, -id)  %>%
  dplyr::rename(Neighborhood = level) %>%
  # Make names smaller
  rename_at(vars(contains("emb")), funs(gsub("Neighborhood_", "", ., fixed = TRUE)))
hood_coef

## # A tibble: 29 x 6
##     embed_1  embed_2  embed_3 embed_4  embed_5 Neighborhood      
##       <dbl>    <dbl>    <dbl>   <dbl>    <dbl> <chr>             
##  1  0.00849  0.0454  -0.0369   0.0157  0.00603 ..new             
##  2 -0.0515  -0.0273  -0.0370  -0.0191  0.0367  North_Ames        
##  3  0.0114  -0.0872  -0.00593 -0.0648 -0.0108  College_Creek     
##  4 -0.0532   0.0703  -0.00590 -0.0352  0.0529  Old_Town          
##  5  0.0280  -0.00582 -0.0139  -0.0310  0.0825  Edwards           
##  6 -0.0205  -0.0912  -0.0300  -0.0572 -0.0753  Somerset          
##  7 -0.00670 -0.153    0.0530  -0.0826 -0.0747  Northridge_Heights
##  8 -0.0504  -0.00753  0.00368 -0.0581 -0.0154  Gilbert           
##  9 -0.0316  -0.0213  -0.0243  -0.0514  0.0454  Sawyer            
## 10 -0.0373   0.00319  0.0112  -0.0133 -0.0200  Northwest_Ames    
## # … with 19 more rows

hood_coef <-
  hood_coef %>%
  inner_join(means, by = "Neighborhood")
hood_coef

## # A tibble: 28 x 10
##     embed_1  embed_2  embed_3  embed_4  embed_5 Neighborhood  mean     n   lon
##       <dbl>    <dbl>    <dbl>    <dbl>    <dbl> <chr>        <dbl> <int> <dbl>
##  1 -0.0515  -0.0273  -3.70e-2 -0.0191   0.0367  North_Ames    5.15   443 -93.6
##  2  0.0114  -0.0872  -5.93e-3 -0.0648  -0.0108  College_Cre…  5.29   267 -93.7
##  3 -0.0532   0.0703  -5.90e-3 -0.0352   0.0529  Old_Town      5.07   239 -93.6
##  4  0.0280  -0.00582 -1.39e-2 -0.0310   0.0825  Edwards       5.09   194 -93.7
##  5 -0.0205  -0.0912  -3.00e-2 -0.0572  -0.0753  Somerset      5.35   182 -93.6
##  6 -0.00670 -0.153    5.30e-2 -0.0826  -0.0747  Northridge_…  5.49   166 -93.7
##  7 -0.0504  -0.00753  3.68e-3 -0.0581  -0.0154  Gilbert       5.27   165 -93.6
##  8 -0.0316  -0.0213  -2.43e-2 -0.0514   0.0454  Sawyer        5.13   151 -93.7
##  9 -0.0373   0.00319  1.12e-2 -0.0133  -0.0200  Northwest_A…  5.27   131 -93.6
## 10 -0.0371  -0.0435  -2.46e-4 -0.00874  0.00631 Sawyer_West   5.25   125 -93.7
## # … with 18 more rows, and 1 more variable: lat <dbl>
…
