…
``` r
library(recipes)
library(dplyr)
library(modeldata)

data(grants)

set.seed(1)
grants_other <- sample_n(grants_other, 500)
reencoded <- recipe(class ~ sponsor_code, data = grants_other) |>
  step_lencode(sponsor_code, outcome = vars(class), smooth = FALSE) |>
  prep()

bake(reencoded, grants_other)
#> # A tibble: 500 × 2
#>    sponsor_code class       
#>           <dbl> <fct>       
#>  1       -1.61  successful  
#>  2        0     unsuccessful
#>  3       -1.61  unsuccessful
#>  4        6.91  unsuccessful
#>  5        6.91  unsuccessful
#>  6       -0.320 successful  
#>  7        1.24  successful  
#>  8        6.91  successful  
#>  9       -0.320 successful  
#> 10        1.24  successful  
#> # ℹ 490 more rows

tidy(reencoded, 1)
#> # A tibble: 80 × 4
#>    level  value terms        id           
#>    <chr>  <dbl> <chr>        <chr>        
#>  1 40D   -1.61  sponsor_code lencode_Y7Kxn
#>  2 266B   0     sponsor_code lencode_Y7Kxn
#>  3 205A   6.91  sponsor_code lencode_Y7Kxn
#>  4 4D    -0.320 sponsor_code lencode_Y7Kxn
#>  5 Unk    1.24  sponsor_code lencode_Y7Kxn
#>  6 204D   6.91  sponsor_code lencode_Y7Kxn
#>  7 2B    -0.492 sponsor_code lencode_Y7Kxn
#>  8 75C    6.91  sponsor_code lencode_Y7Kxn
#>  9 34B    1.20  sponsor_code lencode_Y7Kxn
#> 10 113A   0.693 sponsor_code lencode_Y7Kxn
#> # ℹ 70 more rows
```
