Discretize numeric variables with CART — step_discretize_cart • embed
…
bake(cart_rec, ad_data_te, tau)

#> # A tibble: 82 x 1
#>    tau          
#>    <fct>        
#>  1 [6.147,6.25) 
#>  2 [6.418,6.661)
#>  3 [-Inf,6.147) 
#>  4 [-Inf,6.147) 
#>  5 [6.147,6.25) 
#>  6 [-Inf,6.147) 
#>  7 [6.25,6.322) 
#>  8 [6.661, Inf] 
#>  9 [-Inf,6.147) 
#> 10 [-Inf,6.147) 
#> # … with 72 more rows
…
