Entity Embeddings of Categorical Variables using Tensorflow • embed
…
The embeddings are obtained using the tidy method:

hood_coef <- 
  tidy(tf_embed, number = 4) %>%
  dplyr::select(-terms, -id)  %>%
  dplyr::rename(Neighborhood = level) %>%
  # Make names smaller
  rename_at(vars(contains("emb")), funs(gsub("Neighborhood_", "", ., fixed = TRUE)))
hood_coef

## # A tibble: 29 x 6
##    embed_1 embed_2 embed_3 embed_4 embed_5 Neighborhood      
##      <dbl>   <dbl>   <dbl>   <dbl>   <dbl> <chr>             
##  1  0.0159   0.978   0.608  0.821    0.906 ..new             
##  2  0.169    0.812   0.283  0.649    0.893 North_Ames        
##  3  0.616    0.936   0.521  0.162    0.348 College_Creek     
##  4  0.567    0.326   0.634  0.821    0.309 Old_Town          
##  5  0.957    0.459   0.203  0.371    0.569 Edwards           
##  6  0.464    0.275   0.754  0.0222   0.570 Somerset          
##  7  0.782    0.147   0.729  0.438    0.425 Northridge_Heights
##  8  0.0147   0.700   0.561  0.438    0.774 Gilbert           
##  9  0.456    0.409   0.666  0.196    0.443 Sawyer            
## 10  0.371    0.375   0.754  0.498    0.400 Northwest_Ames    
## # … with 19 more rows

hood_coef <- 
  hood_coef %>% 
  inner_join(means, by = "Neighborhood")
hood_coef

## # A tibble: 28 x 10
##    embed_1 embed_2 embed_3 embed_4 embed_5 Neighborhood   mean     n   lon   lat
##      <dbl>   <dbl>   <dbl>   <dbl>   <dbl> <chr>         <dbl> <int> <dbl> <dbl>
##  1  0.169    0.812   0.283  0.649    0.893 North_Ames     5.15   443 -93.6  42.0
##  2  0.616    0.936   0.521  0.162    0.348 College_Creek  5.29   267 -93.7  42.0
##  3  0.567    0.326   0.634  0.821    0.309 Old_Town       5.07   239 -93.6  42.0
##  4  0.957    0.459   0.203  0.371    0.569 Edwards        5.09   194 -93.7  42.0
##  5  0.464    0.275   0.754  0.0222   0.570 Somerset       5.35   182 -93.6  42.1
##  6  0.782    0.147   0.729  0.438    0.425 Northridge_H…  5.49   166 -93.7  42.1
##  7  0.0147   0.700   0.561  0.438    0.774 Gilbert        5.27   165 -93.6  42.1
##  8  0.456    0.409   0.666  0.196    0.443 Sawyer         5.13   151 -93.7  42.0
##  9  0.371    0.375   0.754  0.498    0.400 Northwest_Am…  5.27   131 -93.6  42.0
## 10  0.167    0.773   1.01   0.0631   0.165 Sawyer_West    5.25   125 -93.7  42.0
## # … with 18 more rows
…
